%YAML 1.1
%TAG !u! tag:unity3d.com,2011:
--- !u!114 &11400000
MonoBehaviour:
  m_ObjectHideFlags: 0
  m_CorrespondingSourceObject: {fileID: 0}
  m_PrefabInstance: {fileID: 0}
  m_PrefabAsset: {fileID: 0}
  m_GameObject: {fileID: 0}
  m_Enabled: 1
  m_EditorHideFlags: 0
  m_Script: {fileID: 11500000, guid: 70045e22eaf0b9c4399b80afd229cae7, type: 3}
  m_Name: House
  m_EditorClassIdentifier: 
  m_sprite: {fileID: 21300000, guid: 915c4ee6913f8564e80b2d823b2af5df, type: 3}
  m_model: {fileID: 1564593199772958454, guid: 67df43c44de8aa0408d7ae445799ceb7, type: 3}
  m_points: 0
  m_pointsNearHouse: 1
  m_pointsNearFactory: -2
  m_pointsNearCommerce: 0
